^S:\SKOLA\LS2020\TIMOVYSOFTVEROVYPROJEKT\TSP\ORIENTEDGAUSS\ELLIPSESCALEDIALOG.UI
setlocalP:\Qt\5.14.1\msvc2017_64\bin\uic.exe -o S:/Skola/LS2020/TimovySoftverovyProjekt/TSP/OrientedGaussBuild/ui_EllipseScaleDialog.h S:/Skola/LS2020/TimovySoftverovyProjekt/TSP/OrientedGauss/EllipseScaleDialog.uiif %errorlevel% neq 0 goto :cmEnd:cmEndendlocal & call :cmErrorLevel %errorlevel% & goto :cmDone:cmErrorLevelexit /b %1:cmDoneif %errorlevel% neq 0 goto :VCEnd
^S:\SKOLA\LS2020\TIMOVYSOFTVEROVYPROJEKT\TSP\ORIENTEDGAUSS\NEWIMAGEDIALOG.UI
setlocalP:\Qt\5.14.1\msvc2017_64\bin\uic.exe -o S:/Skola/LS2020/TimovySoftverovyProjekt/TSP/OrientedGaussBuild/ui_NewImageDialog.h S:/Skola/LS2020/TimovySoftverovyProjekt/TSP/OrientedGauss/NewImageDialog.uiif %errorlevel% neq 0 goto :cmEnd:cmEndendlocal & call :cmErrorLevel %errorlevel% & goto :cmDone:cmErrorLevelexit /b %1:cmDoneif %errorlevel% neq 0 goto :VCEnd
^S:\SKOLA\LS2020\TIMOVYSOFTVEROVYPROJEKT\TSP\ORIENTEDGAUSS\ORIENTEDGAUSSIAN.UI
setlocalP:\Qt\5.14.1\msvc2017_64\bin\uic.exe -o S:/Skola/LS2020/TimovySoftverovyProjekt/TSP/OrientedGaussBuild/ui_OrientedGaussian.h S:/Skola/LS2020/TimovySoftverovyProjekt/TSP/OrientedGauss/OrientedGaussian.uiif %errorlevel% neq 0 goto :cmEnd:cmEndendlocal & call :cmErrorLevel %errorlevel% & goto :cmDone:cmErrorLevelexit /b %1:cmDoneif %errorlevel% neq 0 goto :VCEnd
^S:\SKOLA\LS2020\TIMOVYSOFTVEROVYPROJEKT\TSP\ORIENTEDGAUSS\TENSORSETTINGSDIALOG.UI
setlocalP:\Qt\5.14.1\msvc2017_64\bin\uic.exe -o S:/Skola/LS2020/TimovySoftverovyProjekt/TSP/OrientedGaussBuild/ui_TensorSettingsDialog.h S:/Skola/LS2020/TimovySoftverovyProjekt/TSP/OrientedGauss/TensorSettingsDialog.uiif %errorlevel% neq 0 goto :cmEnd:cmEndendlocal & call :cmErrorLevel %errorlevel% & goto :cmDone:cmErrorLevelexit /b %1:cmDoneif %errorlevel% neq 0 goto :VCEnd
^S:\SKOLA\LS2020\TIMOVYSOFTVEROVYPROJEKT\TSP\ORIENTEDGAUSS\VIEWERWIDGET.UI
setlocalP:\Qt\5.14.1\msvc2017_64\bin\uic.exe -o S:/Skola/LS2020/TimovySoftverovyProjekt/TSP/OrientedGaussBuild/ui_ViewerWidget.h S:/Skola/LS2020/TimovySoftverovyProjekt/TSP/OrientedGauss/ViewerWidget.uiif %errorlevel% neq 0 goto :cmEnd:cmEndendlocal & call :cmErrorLevel %errorlevel% & goto :cmDone:cmErrorLevelexit /b %1:cmDoneif %errorlevel% neq 0 goto :VCEnd
^S:\SKOLA\LS2020\TIMOVYSOFTVEROVYPROJEKT\TSP\ORIENTEDGAUSS\CMAKELISTS.TXT
setlocal"P:\Program Files\CMake\bin\cmake.exe" -SS:/Skola/LS2020/TimovySoftverovyProjekt/TSP/OrientedGauss -BS:/Skola/LS2020/TimovySoftverovyProjekt/TSP/OrientedGaussBuild --check-stamp-file S:/Skola/LS2020/TimovySoftverovyProjekt/TSP/OrientedGaussBuild/CMakeFiles/generate.stampif %errorlevel% neq 0 goto :cmEnd:cmEndendlocal & call :cmErrorLevel %errorlevel% & goto :cmDone:cmErrorLevelexit /b %1:cmDoneif %errorlevel% neq 0 goto :VCEnd
